<?xml version="1.0" encoding="UTF-8"?>
<svg width="32px" height="32px" viewBox="0 0 32 32" version="1.1" xmlns="http://www.w3.org/2000/svg" xmlns:xlink="http://www.w3.org/1999/xlink">
    <!-- Generator: Sketch 49 (51002) - http://www.bohemiancoding.com/sketch -->
    <title>Artboard</title>
    <desc>Created with Sketch.</desc>
    <defs></defs>
    <g id="Artboard" stroke="none" stroke-width="1" fill="none" fill-rule="evenodd">
        <path d="M11.8398438,15.6796875 L11.8398438,17.3203125 L6.83984375,17.3203125 L6.83984375,15.6796875 L11.8398438,15.6796875 Z M13.6367188,12.984375 L12.4648438,14.15625 L10.7070312,12.359375 L11.8789062,11.1875 L13.6367188,12.984375 Z M16.8398438,7.3203125 L16.8398438,12.3203125 L15.1601562,12.3203125 L15.1601562,7.3203125 L16.8398438,7.3203125 Z M21.2929688,12.359375 L19.5351562,14.15625 L18.3632812,12.984375 L20.1210938,11.1875 L21.2929688,12.359375 Z M20.1601562,15.6796875 L25.1601562,15.6796875 L25.1601562,17.3203125 L20.1601562,17.3203125 L20.1601562,15.6796875 Z M14.2226562,14.7421875 C14.7174504,14.2473934 15.3098924,14 16,14 C16.6901076,14 17.2825496,14.240883 17.7773438,14.7226562 C18.2721379,15.2044295 18.5195312,15.7968715 18.5195312,16.5 C18.5195312,17.2031285 18.2721379,17.7955705 17.7773438,18.2773438 C17.2825496,18.759117 16.6901076,19 16,19 C15.3098924,19 14.7239607,18.759117 14.2421875,18.2773438 C13.7604143,17.7955705 13.5195312,17.2031285 13.5195312,16.5 C13.5195312,15.7968715 13.7539039,15.2109398 14.2226562,14.7421875 Z M18.3632812,20.015625 L19.5351562,18.84375 L21.2929688,20.640625 L20.1210938,21.8125 L18.3632812,20.015625 Z M10.7070312,20.640625 L12.4648438,18.84375 L13.6367188,20.015625 L11.8789062,21.8125 L10.7070312,20.640625 Z M15.1601562,25.6796875 L15.1601562,20.6796875 L16.8398438,20.6796875 L16.8398438,25.6796875 L15.1601562,25.6796875 Z" id="" fill="#145697"></path>
    </g>
</svg>